{
    "headers": {
        "requestTime": [
            "1523416044338"
        ],
        "responseTime": [
            "1523416051009"
        ]
    },
    "body": {
        "content": [
            {
                "orderNum": "2018031314",
                "orderProNum": "2",
                "price": "1099",
                "time": "2018.04.04 11:50",
                "name": "杨丽媛",
                "tel": "0917082256",
                "address": "仁爱路100巷61号11楼（新北市 泰山区）",
                "detail":[{
                    "expressNum": "XXXXXXXXXXX1",
                    "barCode": "582200606",
                    "proPic": "http://images.baleshop.tw/2018/03/26/27b89432-ab1a-4c13-af68-e7c342ec08c4.jpg",
                    "proName": "商品1",
                    "proSize": "1.5m",
                    "orderProNum": "2",
                    "price": "100",
                    "time": "2018.04.02 12:00",
                    "expressPrice": "20",
                    "state": "妥投"
                },{
                    "expressNum": "XXXXXXXXXXX1",
                    "barCode": "582200606",
                    "proPic": "http://images.baleshop.tw/2018/03/26/27b89432-ab1a-4c13-af68-e7c342ec08c4.jpg",
                    "proName": "商品1",
                    "proSize": "1.5m",
                    "orderProNum": "2",
                    "price": "100",
                    "time": "2018.04.02 12:00",
                    "expressPrice": "20",
                    "state": "妥投"
                },{
                    "expressNum": "XXXXXXXXXXX2",
                    "barCode": "582200606",
                    "proPic": "http://images.baleshop.tw/2018/03/26/27b89432-ab1a-4c13-af68-e7c342ec08c4.jpg",
                    "proName": "商品1",
                    "proSize": "1.5m",
                    "orderProNum": "2",
                    "price": "100",
                    "time": "2018.04.02 12:00",
                    "expressPrice": "20",
                    "state": "在途"
                }]
            },{
                "orderNum": "2018031314",
                "orderProNum": "2",
                "price": "1099",
                "time": "2018.04.04 11:50",
                "name": "杨丽媛",
                "tel": "0917082256",
                "address": "仁爱路100巷61号11楼（新北市 泰山区）",
                "detail":[{
                    "expressNum": "XXXXXXXXXXX1",
                    "barCode": "582200606",
                    "proPic": "http://images.baleshop.tw/2018/03/26/27b89432-ab1a-4c13-af68-e7c342ec08c4.jpg",
                    "proName": "商品1",
                    "proSize": "1.5m",
                    "orderProNum": "2",
                    "price": "100",
                    "time": "2018.04.02 12:00",
                    "expressPrice": "20",
                    "state": "妥投"
                },{
                    "expressNum": "XXXXXXXXXXX1",
                    "barCode": "582200606",
                    "proPic": "http://images.baleshop.tw/2018/03/26/27b89432-ab1a-4c13-af68-e7c342ec08c4.jpg",
                    "proName": "商品1",
                    "proSize": "1.5m",
                    "orderProNum": "2",
                    "price": "100",
                    "time": "2018.04.02 12:00",
                    "expressPrice": "20",
                    "state": "妥投"
                },{
                    "expressNum": "XXXXXXXXXXX2",
                    "barCode": "582200606",
                    "proPic": "http://images.baleshop.tw/2018/03/26/27b89432-ab1a-4c13-af68-e7c342ec08c4.jpg",
                    "proName": "商品1",
                    "proSize": "1.5m",
                    "orderProNum": "2",
                    "price": "100",
                    "time": "2018.04.02 12:00",
                    "expressPrice": "20",
                    "state": "在途"
                }]
            }
        ],
        "last": false,
        "totalPages": 80,
        "totalElements": 1194,
        "sort": [
            {
                "direction": "DESC",
                "property": "id",
                "ignoreCase": false,
                "nullHandling": "NATIVE",
                "ascending": false,
                "descending": true
            }
        ],
        "numberOfElements": 15,
        "first": true,
        "size": 15,
        "number": 0
    },
    "statusCode": "OK",
    "statusCodeValue": 200
}